{
	"info": {
		"_postman_id": "b2a9a64a-3029-4fe6-8b51-43de1bdf2d2d",
		"name": "Stellarsys",
		"schema": "https://schema.getpostman.com/json/collection/v2.1.0/collection.json"
	},
	"item": [
		{
			"name": "Allocate Device",
			"request": {
				"method": "POST",
				"header": [],
				"body": {
					"mode": "raw",
					"raw": "{\r\n    \"type\": \"ROVER\",\r\n    \"user\": \"admin\"\r\n}",
					"options": {
						"raw": {
							"language": "json"
						}
					}
				},
				"url": {
					"raw": "localhost:5468/device/allocate",
					"host": [
						"localhost"
					],
					"port": "5468",
					"path": [
						"device",
						"allocate"
					]
				}
			},
			"response": []
		},
		{
			"name": "Free Device",
			"request": {
				"method": "DELETE",
				"header": [],
				"body": {
					"mode": "raw",
					"raw": "{\r\n    \"session\": \"\"\r\n}",
					"options": {
						"raw": {
							"language": "json"
						}
					}
				},
				"url": {
					"raw": "localhost:5468/device/free",
					"host": [
						"localhost"
					],
					"port": "5468",
					"path": [
						"device",
						"free"
					]
				}
			},
			"response": []
		}
	]
}