module stellarsys

go 1.16

require (
	github.com/gorilla/mux v1.8.0
	github.com/joho/godotenv v1.3.0 // indirect
	github.com/stretchr/testify v1.7.0
	gorm.io/driver/postgres v1.1.0
	gorm.io/gorm v1.21.12 // indirect
)
